{
  "project_info": {
    "project_number": "791311014786",
    "firebase_url": "https://ontime-58207.firebaseio.com",
    "project_id": "ontime-58207",
    "storage_bucket": "ontime-58207.appspot.com"
  },
  "client": [
    {
      "client_info": {
        "mobilesdk_app_id": "1:791311014786:android:d67b19ae82feb5bf",
        "android_client_info": {
          "package_name": "com.ontime.taxi.driver"
        }
      },
      "oauth_client": [
        {
          "client_id": "791311014786-njic6qlvsmui6kvqfu40ai3vgtm5ookr.apps.googleusercontent.com",
          "client_type": 3
        }
      ],
      "api_key": [
        {
          "current_key": "AIzaSyB3QwoGyNMR0nhi9o04Uh5to1d0kwlo1gQ"
        }
      ],
      "services": {
        "analytics_service": {
          "status": 1
        },
        "appinvite_service": {
          "status": 1,
          "other_platform_oauth_client": []
        },
        "ads_service": {
          "status": 2
        }
      }
    },
    {
      "client_info": {
        "mobilesdk_app_id": "1:791311014786:android:6781ce13e1b4d593",
        "android_client_info": {
          "package_name": "com.ontime.taxi.rider"
        }
      },
      "oauth_client": [
        {
          "client_id": "791311014786-njic6qlvsmui6kvqfu40ai3vgtm5ookr.apps.googleusercontent.com",
          "client_type": 3
        }
      ],
      "api_key": [
        {
          "current_key": "AIzaSyB3QwoGyNMR0nhi9o04Uh5to1d0kwlo1gQ"
        }
      ],
      "services": {
        "analytics_service": {
          "status": 1
        },
        "appinvite_service": {
          "status": 1,
          "other_platform_oauth_client": []
        },
        "ads_service": {
          "status": 2
        }
      }
    }
  ],
  "configuration_version": "1"
}